…
> # generate a visir-visir lookup within the day
> #     the statistics will be summarised by visir.min (to be renamed visir
> #     downstream .
> visir_visir_lookup <- 
+   lgs2 %>% 
+   group_by(vid, date, gid) %>% 
+   mutate(visir.min = min(visir),
+          n.set = n()) %>% 
+   ungroup() %>% 
+   select(visir.min, visir, n.set)
> # there are some large number of records occurring within a single day
> #   check if this make sense, but at least expected for dredge per example
> #   below.
> visir_visir_lookup %>% count(n.set) %>% arrange(-n.set)
# A tibble: 33 × 2
   n.set     n
   <int> <int>
 1    34    34
 2    33    66
 3    32    32
 4    30    30
 5    29    87
 6    28   336
 7    27   189
 8    26   104
 9    25   250
10    24   432
# … with 23 more rows
…
