…
> # generate a visir-visir lookup within the day
> #     the statistics will be summarised by visir.min (to be renamed visir
> #     downstream .
> visir_visir_lookup <- 
+   lgs2 %>% 
+   group_by(vid, date, gid) %>% 
+   mutate(visir.min = min(visir),
+          n.set = n()) %>% 
+   ungroup() %>% 
+   select(visir.min, visir, n.set)
> # there are some large number of records occurring within a single day
> #   check if this make sense, but at least expected for dredge per example
> #   below.
> visir_visir_lookup %>% count(n.set) %>% arrange(-n.set)
# A tibble: 34 × 2
   n.set     n
   <int> <int>
 1    39    39
 2    34    34
 3    33    99
 4    32    32
 5    30    30
 6    29    87
 7    28   336
 8    27   189
 9    26   104
10    25   275
# ℹ 24 more rows
…
